127.0.0.1 - - [14/Sep/2018:11:59:42 +0530] "GET / HTTP/1.1" 404 994
0:0:0:0:0:0:0:1 - - [14/Sep/2018:11:59:42 +0530] "GET /SpringMVCDemo1/index.html HTTP/1.1" 200 158
0:0:0:0:0:0:0:1 - - [14/Sep/2018:12:01:09 +0530] "GET /SpringMVCDemo1/index.html HTTP/1.1" 200 203
0:0:0:0:0:0:0:1 - - [14/Sep/2018:12:01:10 +0530] "GET /SpringMVCDemo1/sayHello.html HTTP/1.1" 200 145
0:0:0:0:0:0:0:1 - - [14/Sep/2018:12:08:35 +0530] "GET /SpringMVCDemo1/sayHello.html HTTP/1.1" 304 -
0:0:0:0:0:0:0:1 - - [14/Sep/2018:12:08:41 +0530] "GET /SpringMVCDemo1/index.html HTTP/1.1" 304 -
0:0:0:0:0:0:0:1 - - [14/Sep/2018:12:08:41 +0530] "GET /SpringMVCDemo1/index.html HTTP/1.1" 304 -
0:0:0:0:0:0:0:1 - - [14/Sep/2018:12:08:41 +0530] "GET /SpringMVCDemo1/index.html HTTP/1.1" 304 -
127.0.0.1 - - [14/Sep/2018:12:32:42 +0530] "GET / HTTP/1.1" 404 994
0:0:0:0:0:0:0:1 - - [14/Sep/2018:12:32:42 +0530] "GET /SpringMVCDemo1/index.html HTTP/1.1" 200 236
0:0:0:0:0:0:0:1 - - [14/Sep/2018:12:32:46 +0530] "GET /SpringMVCDemo1/ritu.do HTTP/1.1" 200 286
0:0:0:0:0:0:0:1 - - [14/Sep/2018:12:32:53 +0530] "GET /SpringMVCDemo1/sayHello.html HTTP/1.1" 304 -
0:0:0:0:0:0:0:1 - - [14/Sep/2018:12:39:15 +0530] "GET /SpringMVCDemo1/ritu.do HTTP/1.1" 200 286
127.0.0.1 - - [14/Sep/2018:12:49:37 +0530] "GET / HTTP/1.1" 404 994
0:0:0:0:0:0:0:1 - - [14/Sep/2018:12:49:38 +0530] "GET /SpringMVCDemo1/index.html HTTP/1.1" 200 270
0:0:0:0:0:0:0:1 - - [14/Sep/2018:12:49:43 +0530] "GET /SpringMVCDemo1/srujana.do HTTP/1.1" 404 1070
0:0:0:0:0:0:0:1 - - [14/Sep/2018:12:50:17 +0530] "GET /SpringMVCDemo1/index.html HTTP/1.1" 304 -
0:0:0:0:0:0:0:1 - - [14/Sep/2018:12:50:18 +0530] "GET /SpringMVCDemo1/index.html HTTP/1.1" 304 -
0:0:0:0:0:0:0:1 - - [14/Sep/2018:12:50:18 +0530] "GET /SpringMVCDemo1/srujana.do HTTP/1.1" 404 1070
127.0.0.1 - - [14/Sep/2018:12:50:32 +0530] "GET / HTTP/1.1" 404 994
0:0:0:0:0:0:0:1 - - [14/Sep/2018:12:50:32 +0530] "GET /SpringMVCDemo1/WEB-INF/classes/com/controller/MyFirstController.java HTTP/1.1" 404 992
0:0:0:0:0:0:0:1 - - [14/Sep/2018:12:51:31 +0530] "GET /SpringMVCDemo1/index.html HTTP/1.1" 200 275
0:0:0:0:0:0:0:1 - - [14/Sep/2018:12:51:34 +0530] "GET /SpringMVCDemo1/srujana.do HTTP/1.1" 200 289
